str;media2
Ch01;1203.23657921144
Ch02;1142.11404762494
Ch03;1035.00352340338
Ch04;883.256477510928
Ch05;718.204562470134
Ch06;815.731323536743
Ch07;1178.1137316238
Ch08;1077.70036164004
Ch09;1426.65888022831
Ch10;1204.73909007081
Ch11;1303.28929473239
Ch12;1240.41880471379
Ch13;1082.8052516638
Ch14;1165.31983006823
Ch15;1011.75950116872
Ch16;1321.37571510032
Ch17;1506.64643794799
