<?xml version="1.0" encoding="UTF-8" standalone="no"?>
<svg
   xmlns:dc="http://purl.org/dc/elements/1.1/"
   xmlns:cc="http://creativecommons.org/ns#"
   xmlns:rdf="http://www.w3.org/1999/02/22-rdf-syntax-ns#"
   xmlns:svg="http://www.w3.org/2000/svg"
   xmlns="http://www.w3.org/2000/svg"
   xmlns:sodipodi="http://sodipodi.sourceforge.net/DTD/sodipodi-0.dtd"
   xmlns:inkscape="http://www.inkscape.org/namespaces/inkscape"
   style="fill-opacity:1; color-rendering:auto; color-interpolation:auto; text-rendering:auto; stroke:black; stroke-linecap:square; stroke-miterlimit:10; shape-rendering:auto; stroke-opacity:1; fill:black; stroke-dasharray:none; font-weight:normal; stroke-width:1; font-family:'Dialog'; font-style:normal; stroke-linejoin:miter; font-size:12px; stroke-dashoffset:0; image-rendering:auto;"
   width="1920"
   height="1055"
   version="1.1"
   id="svg375"
   sodipodi:docname="Primavera 2020.svg"
   inkscape:version="1.0.2-2 (e86c870879, 2021-01-15)">
  <metadata
     id="metadata379">
    <rdf:RDF>
      <cc:Work
         rdf:about="">
        <dc:format>image/svg+xml</dc:format>
        <dc:type
           rdf:resource="http://purl.org/dc/dcmitype/StillImage" />
      </cc:Work>
    </rdf:RDF>
  </metadata>
  <sodipodi:namedview
     pagecolor="#ffffff"
     bordercolor="#666666"
     borderopacity="1"
     objecttolerance="10"
     gridtolerance="10"
     guidetolerance="10"
     inkscape:pageopacity="0"
     inkscape:pageshadow="2"
     inkscape:window-width="1920"
     inkscape:window-height="1001"
     id="namedview377"
     showgrid="false"
     inkscape:zoom="0.68958333"
     inkscape:cx="960"
     inkscape:cy="527.5"
     inkscape:window-x="-9"
     inkscape:window-y="-9"
     inkscape:window-maximized="1"
     inkscape:current-layer="svg375" />
  <!--Generated by the Batik Graphics2D SVG Generator-->
  <defs
     id="genericDefs" />
  <g
     id="g373"
     inkscape:export-xdpi="96"
     inkscape:export-ydpi="96">
    <defs
       id="defs1">
      <clipPath
         clipPathUnits="userSpaceOnUse"
         id="clipPath1">
        <path
           d="M0 0 L1920 0 L1920 1055 L0 1055 L0 0 Z"
           id="path3" />
      </clipPath>
      <font
         horiz-adv-x="75.0"
         id="font1">
        <font-face
           ascent="100.53711"
           descent="21.972656"
           units-per-em="100"
           style="font-style:normal; font-family:SansSerif; font-weight:bold;"
           id="font-face6" />
        <missing-glyph
           horiz-adv-x="75.0"
           d="M12.5 0 L12.5 62.5 L62.5 62.5 L62.5 0 L12.5 0 ZM14.0625 1.5625 L60.9375 1.5625 L60.9375 60.9375 L14.0625 60.9375 L14.0625 1.5625 Z"
           id="missing-glyph8" />
        <glyph
           unicode="0"
           horiz-adv-x="55.615234"
           d="M27.4375 71.875 Q37.8438 71.875 43.7031 64.4531 Q50.6875 55.6719 50.6875 35.2969 Q50.6875 14.9844 43.6562 6.1094 Q37.8438 -1.2188 27.4375 -1.2188 Q17 -1.2188 10.6016 6.8125 Q4.2031 14.8438 4.2031 35.4531 Q4.2031 55.6719 11.2344 64.5469 Q17.0469 71.875 27.4375 71.875 ZM27.4375 60.5 Q24.9531 60.5 23 58.9141 Q21.0469 57.3281 19.9688 53.2188 Q18.5625 47.9062 18.5625 35.2969 Q18.5625 22.7031 19.8281 17.9922 Q21.0938 13.2812 23.0234 11.7188 Q24.9531 10.1562 27.4375 10.1562 Q29.9375 10.1562 31.8906 11.7422 Q33.8438 13.3281 34.9062 17.4375 Q36.3281 22.7031 36.3281 35.2969 Q36.3281 47.9062 35.0625 52.6172 Q33.7969 57.3281 31.8672 58.9141 Q29.9375 60.5 27.4375 60.5 Z"
           id="glyph10" />
        <glyph
           unicode="2"
           horiz-adv-x="55.615234"
           d="M50.5938 12.75 L50.5938 0 L2.4844 0 Q3.2656 7.2344 7.1719 13.7031 Q11.0781 20.1719 22.6094 30.8594 Q31.8906 39.5 33.9844 42.5781 Q36.8125 46.8281 36.8125 50.9844 Q36.8125 55.5625 34.3516 58.0312 Q31.8906 60.5 27.5469 60.5 Q23.25 60.5 20.7109 57.9141 Q18.1719 55.3281 17.7812 49.3125 L4.1094 50.6875 Q5.3281 62.0156 11.7734 66.9453 Q18.2188 71.875 27.875 71.875 Q38.4844 71.875 44.5391 66.1641 Q50.5938 60.4531 50.5938 51.9531 Q50.5938 47.125 48.8594 42.75 Q47.125 38.375 43.3594 33.5938 Q40.875 30.4219 34.375 24.4609 Q27.875 18.5 26.1484 16.5469 Q24.4219 14.5938 23.3438 12.75 L50.5938 12.75 Z"
           id="glyph12" />
        <glyph
           unicode=" "
           horiz-adv-x="27.783203"
           d=""
           id="glyph14" />
        <glyph
           unicode="e"
           horiz-adv-x="55.615234"
           d="M37.2031 16.5 L50.875 14.2031 Q48.25 6.6875 42.5547 2.7578 Q36.8594 -1.1719 28.3281 -1.1719 Q14.7969 -1.1719 8.2969 7.6719 Q3.1719 14.75 3.1719 25.5312 Q3.1719 38.4219 9.9141 45.7266 Q16.6562 53.0312 26.9531 53.0312 Q38.5312 53.0312 45.2188 45.3906 Q51.9062 37.75 51.6094 21.9688 L17.2344 21.9688 Q17.3906 15.875 20.5625 12.4766 Q23.7344 9.0781 28.4688 9.0781 Q31.6875 9.0781 33.8828 10.8359 Q36.0781 12.5938 37.2031 16.5 ZM37.9844 30.375 Q37.8438 36.3281 34.9141 39.4297 Q31.9844 42.5312 27.7812 42.5312 Q23.2969 42.5312 20.3594 39.2656 Q17.4375 35.9844 17.4844 30.375 L37.9844 30.375 Z"
           id="glyph16" />
        <glyph
           unicode="v"
           horiz-adv-x="55.615234"
           d="M21.4375 0 L0.5312 51.8594 L14.9375 51.8594 L24.7031 25.3906 L27.5469 16.5469 Q28.6562 19.9219 28.9531 21 Q29.6406 23.1875 30.4219 25.3906 L40.2812 51.8594 L54.3906 51.8594 L33.7969 0 L21.4375 0 Z"
           id="glyph18" />
        <glyph
           unicode="a"
           horiz-adv-x="55.615234"
           d="M17.4375 36.0312 L4.9844 38.2812 Q7.0781 45.7969 12.2031 49.4141 Q17.3281 53.0312 27.4375 53.0312 Q36.625 53.0312 41.1172 50.8594 Q45.6094 48.6875 47.4375 45.3438 Q49.2656 42 49.2656 33.0625 L49.125 17.0469 Q49.125 10.2031 49.7812 6.9609 Q50.4375 3.7188 52.25 0 L38.6719 0 Q38.1406 1.375 37.3594 4.0469 Q37.0156 5.2812 36.8594 5.6719 Q33.3438 2.25 29.3438 0.5391 Q25.3438 -1.1719 20.7969 -1.1719 Q12.7969 -1.1719 8.1797 3.1719 Q3.5625 7.5156 3.5625 14.1562 Q3.5625 18.5625 5.6641 22 Q7.7656 25.4375 11.5469 27.2734 Q15.3281 29.1094 22.4688 30.4688 Q32.0781 32.2812 35.7969 33.8438 L35.7969 35.2031 Q35.7969 39.1562 33.8438 40.8438 Q31.8906 42.5312 26.4688 42.5312 Q22.7969 42.5312 20.75 41.0938 Q18.7031 39.6562 17.4375 36.0312 ZM35.7969 24.9062 Q33.1562 24.0312 27.4453 22.8047 Q21.7344 21.5781 19.9688 20.4062 Q17.2812 18.5 17.2812 15.5781 Q17.2812 12.7031 19.4297 10.6016 Q21.5781 8.5 24.9062 8.5 Q28.6094 8.5 31.9844 10.9375 Q34.4688 12.7969 35.25 15.4844 Q35.7969 17.2344 35.7969 22.1719 L35.7969 24.9062 Z"
           id="glyph20" />
        <glyph
           unicode="m"
           horiz-adv-x="88.916016"
           d="M6.1562 51.8594 L18.7969 51.8594 L18.7969 44.7812 Q25.5938 53.0312 34.9688 53.0312 Q39.9375 53.0312 43.6016 50.9766 Q47.2656 48.9219 49.6094 44.7812 Q53.0312 48.9219 56.9844 50.9766 Q60.9375 53.0312 65.4375 53.0312 Q71.1406 53.0312 75.0938 50.7109 Q79.0469 48.3906 81 43.8906 Q82.4219 40.5781 82.4219 33.1562 L82.4219 0 L68.7031 0 L68.7031 29.6406 Q68.7031 37.3594 67.2812 39.5938 Q65.375 42.5312 61.4219 42.5312 Q58.5469 42.5312 56.0078 40.7734 Q53.4688 39.0156 52.3438 35.625 Q51.2188 32.2344 51.2188 24.9062 L51.2188 0 L37.5 0 L37.5 28.4219 Q37.5 35.9844 36.7656 38.1797 Q36.0312 40.375 34.4922 41.4531 Q32.9531 42.5312 30.3281 42.5312 Q27.1562 42.5312 24.6172 40.8203 Q22.0781 39.1094 20.9766 35.8906 Q19.875 32.6719 19.875 25.2031 L19.875 0 L6.1562 0 L6.1562 51.8594 Z"
           id="glyph22" />
        <glyph
           unicode="i"
           horiz-adv-x="27.783203"
           d="M7.1719 58.8906 L7.1719 71.5781 L20.9062 71.5781 L20.9062 58.8906 L7.1719 58.8906 ZM7.1719 0 L7.1719 51.8594 L20.9062 51.8594 L20.9062 0 L7.1719 0 Z"
           id="glyph24" />
        <glyph
           unicode="r"
           horiz-adv-x="38.916016"
           d="M20.3125 0 L6.5938 0 L6.5938 51.8594 L19.3438 51.8594 L19.3438 44.4844 Q22.6094 49.7031 25.2188 51.3672 Q27.8281 53.0312 31.1562 53.0312 Q35.8438 53.0312 40.1875 50.4375 L35.9375 38.4844 Q32.4688 40.7188 29.5 40.7188 Q26.6094 40.7188 24.6094 39.1328 Q22.6094 37.5469 21.4609 33.3984 Q20.3125 29.25 20.3125 16.0156 L20.3125 0 Z"
           id="glyph26" />
        <glyph
           unicode="P"
           horiz-adv-x="66.69922"
           d="M7.2812 0 L7.2812 71.5781 L30.4688 71.5781 Q43.6562 71.5781 47.6562 70.5156 Q53.8125 68.8906 57.9609 63.5 Q62.1094 58.1094 62.1094 49.5625 Q62.1094 42.9688 59.7188 38.4766 Q57.3281 33.9844 53.6406 31.4219 Q49.9531 28.8594 46.1406 28.0312 Q40.9688 27 31.1562 27 L21.7344 27 L21.7344 0 L7.2812 0 ZM21.7344 59.4688 L21.7344 39.1562 L29.6406 39.1562 Q38.1875 39.1562 41.0703 40.2812 Q43.9531 41.4062 45.5859 43.7969 Q47.2188 46.1875 47.2188 49.3594 Q47.2188 53.2656 44.9219 55.8047 Q42.625 58.3438 39.1094 58.9844 Q36.5312 59.4688 28.7188 59.4688 L21.7344 59.4688 Z"
           id="glyph28" />
      </font>
      <font
         horiz-adv-x="75.0"
         id="font2">
        <font-face
           ascent="100.53711"
           descent="21.972656"
           units-per-em="100"
           style="font-style:normal; font-family:SansSerif; font-weight:normal;"
           id="font-face31" />
        <missing-glyph
           horiz-adv-x="75.0"
           d="M12.5 0 L12.5 62.5 L62.5 62.5 L62.5 0 L12.5 0 ZM14.0625 1.5625 L60.9375 1.5625 L60.9375 60.9375 L14.0625 60.9375 L14.0625 1.5625 Z"
           id="missing-glyph33" />
        <glyph
           unicode="1"
           horiz-adv-x="55.615234"
           d="M37.25 0 L28.4688 0 L28.4688 56 Q25.2969 52.9844 20.1406 49.9531 Q14.9844 46.9219 10.8906 45.4062 L10.8906 53.9062 Q18.2656 57.375 23.7812 62.3047 Q29.2969 67.2344 31.5938 71.875 L37.25 71.875 L37.25 0 Z"
           id="glyph35" />
        <glyph
           unicode="0"
           horiz-adv-x="55.615234"
           d="M4.1562 35.2969 Q4.1562 48 6.7656 55.7422 Q9.375 63.4844 14.5234 67.6797 Q19.6719 71.875 27.4844 71.875 Q33.25 71.875 37.5938 69.5547 Q41.9375 67.2344 44.7734 62.8672 Q47.6094 58.5 49.2188 52.2266 Q50.8281 45.9531 50.8281 35.2969 Q50.8281 22.7031 48.2422 14.9688 Q45.6562 7.2344 40.5078 3.0078 Q35.3594 -1.2188 27.4844 -1.2188 Q17.1406 -1.2188 11.2344 6.2031 Q4.1562 15.1406 4.1562 35.2969 ZM13.1875 35.2969 Q13.1875 17.6719 17.3125 11.8359 Q21.4375 6 27.4844 6 Q33.5469 6 37.6719 11.8594 Q41.7969 17.7188 41.7969 35.2969 Q41.7969 52.9844 37.6719 58.7891 Q33.5469 64.5938 27.3906 64.5938 Q21.3438 64.5938 17.7188 59.4688 Q13.1875 52.9375 13.1875 35.2969 Z"
           id="glyph37" />
        <glyph
           unicode="h"
           horiz-adv-x="55.615234"
           d="M6.5938 0 L6.5938 71.5781 L15.375 71.5781 L15.375 45.9062 Q21.5312 53.0312 30.9062 53.0312 Q36.6719 53.0312 40.9219 50.7578 Q45.1719 48.4844 47 44.4844 Q48.8281 40.4844 48.8281 32.8594 L48.8281 0 L40.0469 0 L40.0469 32.8594 Q40.0469 39.4531 37.1875 42.4531 Q34.3281 45.4531 29.1094 45.4531 Q25.2031 45.4531 21.7578 43.4297 Q18.3125 41.4062 16.8438 37.9375 Q15.375 34.4688 15.375 28.375 L15.375 0 L6.5938 0 Z"
           id="glyph39" />
        <glyph
           unicode="C"
           horiz-adv-x="72.2168"
           d="M58.7969 25.0938 L68.2656 22.7031 Q65.2812 11.0312 57.5469 4.9062 Q49.8125 -1.2188 38.625 -1.2188 Q27.0469 -1.2188 19.7969 3.4922 Q12.5469 8.2031 8.7656 17.1406 Q4.9844 26.0781 4.9844 36.3281 Q4.9844 47.5156 9.2578 55.8359 Q13.5312 64.1562 21.4141 68.4766 Q29.2969 72.7969 38.7656 72.7969 Q49.5156 72.7969 56.8359 67.3281 Q64.1562 61.8594 67.0469 51.9531 L57.7188 49.75 Q55.2188 57.5625 50.4844 61.1328 Q45.75 64.7031 38.5781 64.7031 Q30.3281 64.7031 24.7812 60.7422 Q19.2344 56.7812 16.9922 50.1172 Q14.75 43.4531 14.75 36.375 Q14.75 27.25 17.4062 20.4375 Q20.0625 13.625 25.6797 10.2578 Q31.2969 6.8906 37.8438 6.8906 Q45.7969 6.8906 51.3203 11.4766 Q56.8438 16.0625 58.7969 25.0938 Z"
           id="glyph41" />
        <glyph
           unicode="2"
           horiz-adv-x="55.615234"
           d="M50.3438 8.4531 L50.3438 0 L3.0312 0 Q2.9375 3.1719 4.0469 6.1094 Q5.8594 10.9375 9.8359 15.625 Q13.8125 20.3125 21.3438 26.4688 Q33.0156 36.0312 37.1172 41.625 Q41.2188 47.2188 41.2188 52.2031 Q41.2188 57.4219 37.4766 61.0078 Q33.7344 64.5938 27.7344 64.5938 Q21.3906 64.5938 17.5781 60.7891 Q13.7656 56.9844 13.7188 50.25 L4.6875 51.1719 Q5.6094 61.2812 11.6641 66.5781 Q17.7188 71.875 27.9375 71.875 Q38.2344 71.875 44.2422 66.1641 Q50.25 60.4531 50.25 52 Q50.25 47.7031 48.4922 43.5547 Q46.7344 39.4062 42.6562 34.8125 Q38.5781 30.2188 29.1094 22.2188 Q21.1875 15.5781 18.9453 13.2109 Q16.7031 10.8438 15.2344 8.4531 L50.3438 8.4531 Z"
           id="glyph43" />
        <glyph
           unicode="3"
           horiz-adv-x="55.615234"
           d="M4.2031 18.8906 L12.9844 20.0625 Q14.5 12.5938 18.1406 9.2969 Q21.7812 6 27 6 Q33.2031 6 37.4766 10.2969 Q41.75 14.5938 41.75 20.9531 Q41.75 27 37.7969 30.9297 Q33.8438 34.8594 27.7344 34.8594 Q25.25 34.8594 21.5312 33.8906 L22.5156 41.6094 Q23.3906 41.5 23.9219 41.5 Q29.5469 41.5 34.0391 44.4297 Q38.5312 47.3594 38.5312 53.4688 Q38.5312 58.2969 35.2578 61.4766 Q31.9844 64.6562 26.8125 64.6562 Q21.6875 64.6562 18.2656 61.4297 Q14.8438 58.2031 13.875 51.7656 L5.0781 53.3281 Q6.6875 62.1562 12.3984 67.0156 Q18.1094 71.875 26.6094 71.875 Q32.4688 71.875 37.3984 69.3594 Q42.3281 66.8438 44.9453 62.5 Q47.5625 58.1562 47.5625 53.2656 Q47.5625 48.6406 45.0703 44.8281 Q42.5781 41.0156 37.7031 38.7656 Q44.0469 37.3125 47.5625 32.6953 Q51.0781 28.0781 51.0781 21.1406 Q51.0781 11.7656 44.2422 5.25 Q37.4062 -1.2656 26.9531 -1.2656 Q17.5312 -1.2656 11.3047 4.3516 Q5.0781 9.9688 4.2031 18.8906 Z"
           id="glyph45" />
        <glyph
           unicode="4"
           horiz-adv-x="55.615234"
           d="M32.3281 0 L32.3281 17.1406 L1.2656 17.1406 L1.2656 25.2031 L33.9375 71.5781 L41.1094 71.5781 L41.1094 25.2031 L50.7812 25.2031 L50.7812 17.1406 L41.1094 17.1406 L41.1094 0 L32.3281 0 ZM32.3281 25.2031 L32.3281 57.4688 L9.9062 25.2031 L32.3281 25.2031 Z"
           id="glyph47" />
        <glyph
           unicode="5"
           horiz-adv-x="55.615234"
           d="M4.1562 18.75 L13.375 19.5312 Q14.4062 12.7969 18.1406 9.3984 Q21.875 6 27.1562 6 Q33.5 6 37.8906 10.7891 Q42.2812 15.5781 42.2812 23.4844 Q42.2812 31 38.0625 35.3516 Q33.8438 39.7031 27 39.7031 Q22.75 39.7031 19.3359 37.7734 Q15.9219 35.8438 13.9688 32.7656 L5.7188 33.8438 L12.6406 70.6094 L48.25 70.6094 L48.25 62.2031 L19.6719 62.2031 L15.8281 42.9688 Q22.2656 47.4688 29.3438 47.4688 Q38.7188 47.4688 45.1641 40.9688 Q51.6094 34.4688 51.6094 24.2656 Q51.6094 14.5469 45.9531 7.4688 Q39.0625 -1.2188 27.1562 -1.2188 Q17.3906 -1.2188 11.2109 4.25 Q5.0312 9.7188 4.1562 18.75 Z"
           id="glyph49" />
        <glyph
           unicode="6"
           horiz-adv-x="55.615234"
           d="M49.75 54.0469 L41.0156 53.375 Q39.8438 58.5469 37.7031 60.8906 Q34.125 64.6562 28.9062 64.6562 Q24.7031 64.6562 21.5312 62.3125 Q17.3906 59.2812 14.9922 53.4688 Q12.5938 47.6562 12.5 36.9219 Q15.6719 41.75 20.2656 44.0938 Q24.8594 46.4375 29.8906 46.4375 Q38.6719 46.4375 44.8516 39.9688 Q51.0312 33.5 51.0312 23.25 Q51.0312 16.5 48.125 10.7188 Q45.2188 4.9375 40.1406 1.8594 Q35.0625 -1.2188 28.6094 -1.2188 Q17.625 -1.2188 10.6953 6.8594 Q3.7656 14.9375 3.7656 33.5 Q3.7656 54.25 11.4219 63.6719 Q18.1094 71.875 29.4375 71.875 Q37.8906 71.875 43.2891 67.1406 Q48.6875 62.4062 49.75 54.0469 ZM13.875 23.1875 Q13.875 18.6562 15.7969 14.5078 Q17.7188 10.3594 21.1875 8.1797 Q24.6562 6 28.4688 6 Q34.0312 6 38.0391 10.4922 Q42.0469 14.9844 42.0469 22.7031 Q42.0469 30.125 38.0859 34.3984 Q34.125 38.6719 28.125 38.6719 Q22.1719 38.6719 18.0234 34.3984 Q13.875 30.125 13.875 23.1875 Z"
           id="glyph51" />
        <glyph
           unicode="7"
           horiz-adv-x="55.615234"
           d="M4.7344 62.2031 L4.7344 70.6562 L51.0781 70.6562 L51.0781 63.8125 Q44.2344 56.5469 37.5234 44.4844 Q30.8125 32.4219 27.1562 19.6719 Q24.5156 10.6875 23.7812 0 L14.75 0 Q14.8906 8.4531 18.0625 20.4141 Q21.2344 32.375 27.1719 43.4844 Q33.1094 54.5938 39.7969 62.2031 L4.7344 62.2031 Z"
           id="glyph53" />
        <glyph
           unicode="8"
           horiz-adv-x="55.615234"
           d="M17.6719 38.8125 Q12.2031 40.8281 9.5703 44.5391 Q6.9375 48.25 6.9375 53.4219 Q6.9375 61.2344 12.5547 66.5547 Q18.1719 71.875 27.4844 71.875 Q36.8594 71.875 42.5781 66.4297 Q48.2969 60.9844 48.2969 53.1719 Q48.2969 48.1875 45.6797 44.5078 Q43.0625 40.8281 37.75 38.8125 Q44.3438 36.6719 47.7812 31.8828 Q51.2188 27.0938 51.2188 20.4531 Q51.2188 11.2812 44.7266 5.0312 Q38.2344 -1.2188 27.6406 -1.2188 Q17.0469 -1.2188 10.5469 5.0547 Q4.0469 11.3281 4.0469 20.7031 Q4.0469 27.6875 7.5938 32.3984 Q11.1406 37.1094 17.6719 38.8125 ZM15.9219 53.7188 Q15.9219 48.6406 19.1953 45.4141 Q22.4688 42.1875 27.6875 42.1875 Q32.7656 42.1875 36.0156 45.3828 Q39.2656 48.5781 39.2656 53.2188 Q39.2656 58.0625 35.9141 61.3594 Q32.5625 64.6562 27.5938 64.6562 Q22.5625 64.6562 19.2422 61.4297 Q15.9219 58.2031 15.9219 53.7188 ZM13.0938 20.6562 Q13.0938 16.8906 14.875 13.375 Q16.6562 9.8594 20.1719 7.9297 Q23.6875 6 27.7344 6 Q34.0312 6 38.1328 10.0547 Q42.2344 14.1094 42.2344 20.3594 Q42.2344 26.7031 38.0156 30.8594 Q33.7969 35.0156 27.4375 35.0156 Q21.2344 35.0156 17.1641 30.9141 Q13.0938 26.8125 13.0938 20.6562 Z"
           id="glyph55" />
        <glyph
           unicode="9"
           horiz-adv-x="55.615234"
           d="M5.4688 16.5469 L13.9219 17.3281 Q14.9844 11.375 18.0156 8.6875 Q21.0469 6 25.7812 6 Q29.8281 6 32.8828 7.8594 Q35.9375 9.7188 37.8906 12.8203 Q39.8438 15.9219 41.1641 21.1953 Q42.4844 26.4688 42.4844 31.9375 Q42.4844 32.5156 42.4375 33.6875 Q39.7969 29.5 35.2344 26.8828 Q30.6719 24.2656 25.3438 24.2656 Q16.4531 24.2656 10.3047 30.7109 Q4.1562 37.1562 4.1562 47.7031 Q4.1562 58.5938 10.5781 65.2344 Q17 71.875 26.6562 71.875 Q33.6406 71.875 39.4297 68.1172 Q45.2188 64.3594 48.2188 57.3984 Q51.2188 50.4375 51.2188 37.25 Q51.2188 23.5312 48.2422 15.4062 Q45.2656 7.2812 39.3828 3.0312 Q33.5 -1.2188 25.5938 -1.2188 Q17.1875 -1.2188 11.8672 3.4453 Q6.5469 8.1094 5.4688 16.5469 ZM41.4531 48.1406 Q41.4531 55.7188 37.4297 60.1562 Q33.4062 64.5938 27.7344 64.5938 Q21.875 64.5938 17.5312 59.8125 Q13.1875 55.0312 13.1875 47.4062 Q13.1875 40.5781 17.3125 36.3047 Q21.4375 32.0312 27.4844 32.0312 Q33.5938 32.0312 37.5234 36.3047 Q41.4531 40.5781 41.4531 48.1406 Z"
           id="glyph57" />
        <glyph
           unicode="s"
           horiz-adv-x="50.0"
           d="M3.0781 15.4844 L11.7656 16.8438 Q12.5 11.625 15.8438 8.8438 Q19.1875 6.0625 25.2031 6.0625 Q31.25 6.0625 34.1797 8.5234 Q37.1094 10.9844 37.1094 14.3125 Q37.1094 17.2812 34.5156 19 Q32.7188 20.1719 25.5312 21.9688 Q15.875 24.4219 12.1406 26.2031 Q8.4062 27.9844 6.4766 31.1328 Q4.5469 34.2812 4.5469 38.0938 Q4.5469 41.5469 6.1328 44.5078 Q7.7188 47.4688 10.4531 49.4219 Q12.5 50.9219 16.0391 51.9766 Q19.5781 53.0312 23.6406 53.0312 Q29.7344 53.0312 34.3516 51.2734 Q38.9688 49.5156 41.1641 46.5078 Q43.3594 43.5 44.1875 38.4844 L35.5938 37.3125 Q35.0156 41.3125 32.2031 43.5547 Q29.3906 45.7969 24.2656 45.7969 Q18.2188 45.7969 15.625 43.7969 Q13.0312 41.7969 13.0312 39.1094 Q13.0312 37.4062 14.1094 36.0312 Q15.1875 34.625 17.4844 33.6875 Q18.7969 33.2031 25.25 31.4531 Q34.5781 28.9531 38.2578 27.3672 Q41.9375 25.7812 44.0391 22.7578 Q46.1406 19.7344 46.1406 15.2344 Q46.1406 10.8438 43.5781 6.9609 Q41.0156 3.0781 36.1797 0.9531 Q31.3438 -1.1719 25.25 -1.1719 Q15.1406 -1.1719 9.8438 3.0312 Q4.5469 7.2344 3.0781 15.4844 Z"
           id="glyph59" />
        <glyph
           unicode="i"
           horiz-adv-x="22.216797"
           d="M6.6406 61.4688 L6.6406 71.5781 L15.4375 71.5781 L15.4375 61.4688 L6.6406 61.4688 ZM6.6406 0 L6.6406 51.8594 L15.4375 51.8594 L15.4375 0 L6.6406 0 Z"
           id="glyph61" />
        <glyph
           unicode="n"
           horiz-adv-x="55.615234"
           d="M6.5938 0 L6.5938 51.8594 L14.5 51.8594 L14.5 44.4844 Q20.2188 53.0312 31 53.0312 Q35.6875 53.0312 39.625 51.3438 Q43.5625 49.6562 45.5156 46.9219 Q47.4688 44.1875 48.25 40.4375 Q48.7344 37.9844 48.7344 31.8906 L48.7344 0 L39.9375 0 L39.9375 31.5469 Q39.9375 36.9219 38.9141 39.5781 Q37.8906 42.2344 35.2812 43.8203 Q32.6719 45.4062 29.1562 45.4062 Q23.5312 45.4062 19.4531 41.8438 Q15.375 38.2812 15.375 28.3281 L15.375 0 L6.5938 0 Z"
           id="glyph63" />
        <glyph
           unicode="a"
           horiz-adv-x="55.615234"
           d="M40.4375 6.3906 Q35.5469 2.25 31.0312 0.5391 Q26.5156 -1.1719 21.3438 -1.1719 Q12.7969 -1.1719 8.2031 3 Q3.6094 7.1719 3.6094 13.6719 Q3.6094 17.4844 5.3438 20.6328 Q7.0781 23.7812 9.8906 25.6875 Q12.7031 27.5938 16.2188 28.5625 Q18.7969 29.25 24.0312 29.8906 Q34.6719 31.1562 39.7031 32.9062 Q39.75 34.7188 39.75 35.2031 Q39.75 40.5781 37.25 42.7812 Q33.8906 45.75 27.25 45.75 Q21.0469 45.75 18.0938 43.5781 Q15.1406 41.4062 13.7188 35.8906 L5.125 37.0625 Q6.2969 42.5781 8.9844 45.9688 Q11.6719 49.3594 16.75 51.1953 Q21.8281 53.0312 28.5156 53.0312 Q35.1562 53.0312 39.3047 51.4688 Q43.4531 49.9062 45.4062 47.5391 Q47.3594 45.1719 48.1406 41.5469 Q48.5781 39.3125 48.5781 33.4531 L48.5781 21.7344 Q48.5781 9.4688 49.1406 6.2266 Q49.7031 2.9844 51.375 0 L42.1875 0 Q40.8281 2.7344 40.4375 6.3906 ZM39.7031 26.0312 Q34.9062 24.0781 25.3438 22.7031 Q19.9219 21.9219 17.6797 20.9453 Q15.4375 19.9688 14.2109 18.0938 Q12.9844 16.2188 12.9844 13.9219 Q12.9844 10.4062 15.6484 8.0625 Q18.3125 5.7188 23.4375 5.7188 Q28.5156 5.7188 32.4688 7.9375 Q36.4219 10.1562 38.2812 14.0156 Q39.7031 17 39.7031 22.7969 L39.7031 26.0312 Z"
           id="glyph65" />
        <glyph
           unicode="D"
           horiz-adv-x="72.2168"
           d="M7.7188 0 L7.7188 71.5781 L32.375 71.5781 Q40.7188 71.5781 45.125 70.5625 Q51.2656 69.1406 55.6094 65.4375 Q61.2812 60.6406 64.0859 53.1953 Q66.8906 45.75 66.8906 36.1875 Q66.8906 28.0312 64.9922 21.7344 Q63.0938 15.4375 60.1094 11.3047 Q57.125 7.1719 53.5859 4.8047 Q50.0469 2.4375 45.0469 1.2188 Q40.0469 0 33.5469 0 L7.7188 0 ZM17.1875 8.4531 L32.4688 8.4531 Q39.5469 8.4531 43.5781 9.7656 Q47.6094 11.0781 50 13.4844 Q53.375 16.8438 55.25 22.5312 Q57.125 28.2188 57.125 36.3281 Q57.125 47.5625 53.4375 53.5938 Q49.75 59.625 44.4844 61.6719 Q40.6719 63.1406 32.2344 63.1406 L17.1875 63.1406 L17.1875 8.4531 Z"
           id="glyph67" />
        <glyph
           unicode="A"
           horiz-adv-x="66.69922"
           d="M-0.1406 0 L27.3438 71.5781 L37.5469 71.5781 L66.8438 0 L56.0625 0 L47.7031 21.6875 L17.7812 21.6875 L9.9062 0 L-0.1406 0 ZM20.5156 29.3906 L44.7812 29.3906 L37.3125 49.2188 Q33.8906 58.25 32.2344 64.0625 Q30.8594 57.1719 28.375 50.3906 L20.5156 29.3906 Z"
           id="glyph69" />
      </font>
    </defs>
    <g
       style="fill:white; stroke:white;"
       id="g75">
      <rect
         x="0"
         y="0"
         width="1920"
         style="clip-path:url(#clipPath1); stroke:none;"
         height="1055"
         clip-path="url(#clipPath1)"
         id="rect73" />
    </g>
    <g
       style="fill:white; text-rendering:optimizeSpeed; color-rendering:optimizeSpeed; image-rendering:optimizeSpeed; shape-rendering:crispEdges; stroke:white; color-interpolation:sRGB;"
       id="g81">
      <rect
         x="0"
         width="1920"
         height="1055"
         y="0"
         style="stroke:none;"
         id="rect77" />
      <path
         style="stroke:none;"
         d="M250 939 L1738 939 L1738 79 L250 79 Z"
         id="path79" />
    </g>
    <g
       style="stroke-linecap:butt; fill-opacity:0.149; fill:rgb(38,38,38); text-rendering:geometricPrecision; image-rendering:optimizeQuality; color-rendering:optimizeQuality; stroke-linejoin:round; stroke:rgb(38,38,38); color-interpolation:linearRGB; stroke-width:0.8333; stroke-opacity:0.149;"
       id="g127">
      <line
         y2="79"
         style="fill:none;"
         x1="347.0435"
         x2="347.0435"
         y1="939"
         id="line83" />
      <line
         y2="79"
         style="fill:none;"
         x1="427.9131"
         x2="427.9131"
         y1="939"
         id="line85" />
      <line
         y2="79"
         style="fill:none;"
         x1="508.7826"
         x2="508.7826"
         y1="939"
         id="line87" />
      <line
         y2="79"
         style="fill:none;"
         x1="589.6522"
         x2="589.6522"
         y1="939"
         id="line89" />
      <line
         y2="79"
         style="fill:none;"
         x1="670.5217"
         x2="670.5217"
         y1="939"
         id="line91" />
      <line
         y2="79"
         style="fill:none;"
         x1="751.3913"
         x2="751.3913"
         y1="939"
         id="line93" />
      <line
         y2="79"
         style="fill:none;"
         x1="832.2609"
         x2="832.2609"
         y1="939"
         id="line95" />
      <line
         y2="79"
         style="fill:none;"
         x1="913.1304"
         x2="913.1304"
         y1="939"
         id="line97" />
      <line
         y2="79"
         style="fill:none;"
         x1="994"
         x2="994"
         y1="939"
         id="line99" />
      <line
         y2="79"
         style="fill:none;"
         x1="1074.8695"
         x2="1074.8695"
         y1="939"
         id="line101" />
      <line
         y2="79"
         style="fill:none;"
         x1="1155.7391"
         x2="1155.7391"
         y1="939"
         id="line103" />
      <line
         y2="79"
         style="fill:none;"
         x1="1236.6086"
         x2="1236.6086"
         y1="939"
         id="line105" />
      <line
         y2="79"
         style="fill:none;"
         x1="1317.4783"
         x2="1317.4783"
         y1="939"
         id="line107" />
      <line
         y2="79"
         style="fill:none;"
         x1="1398.3478"
         x2="1398.3478"
         y1="939"
         id="line109" />
      <line
         y2="79"
         style="fill:none;"
         x1="1479.2174"
         x2="1479.2174"
         y1="939"
         id="line111" />
      <line
         y2="79"
         style="fill:none;"
         x1="1560.0869"
         x2="1560.0869"
         y1="939"
         id="line113" />
      <line
         y2="79"
         style="fill:none;"
         x1="1640.9565"
         x2="1640.9565"
         y1="939"
         id="line115" />
      <line
         y2="939"
         style="fill:none;"
         x1="1738.0001"
         x2="250"
         y1="939"
         id="line117" />
      <line
         y2="724"
         style="fill:none;"
         x1="1738.0001"
         x2="250"
         y1="724"
         id="line119" />
      <line
         y2="509"
         style="fill:none;"
         x1="1738.0001"
         x2="250"
         y1="509"
         id="line121" />
      <line
         y2="294"
         style="fill:none;"
         x1="1738.0001"
         x2="250"
         y1="294"
         id="line123" />
      <line
         y2="79"
         style="fill:none;"
         x1="1738.0001"
         x2="250"
         y1="79"
         id="line125" />
    </g>
    <g
       transform="translate(994.001,76.25)"
       style="font-size:18.3333px; text-rendering:geometricPrecision; image-rendering:optimizeQuality; color-rendering:optimizeQuality; font-family:'SansSerif'; color-interpolation:linearRGB; font-weight:bold;"
       id="g131">
      <text
         x="-67.5"
         xml:space="preserve"
         y="-5"
         style="stroke:none;"
         id="text129">Primavera 2020</text>
    </g>
    <g
       style="stroke-linecap:butt; fill:rgb(38,38,38); text-rendering:geometricPrecision; image-rendering:optimizeQuality; color-rendering:optimizeQuality; stroke-linejoin:round; stroke:rgb(38,38,38); color-interpolation:linearRGB; stroke-width:0.8333;"
       id="g135">
      <line
         y2="939"
         style="fill:none;"
         x1="250"
         x2="1738.0001"
         y1="939"
         id="line133" />
    </g>
    <g
       style="fill:rgb(0,114,189); text-rendering:optimizeSpeed; color-rendering:optimizeSpeed; image-rendering:optimizeSpeed; shape-rendering:crispEdges; stroke:rgb(0,114,189); color-interpolation:sRGB;"
       id="g139">
      <path
         style="stroke:none;"
         d="M379.3913 939 L379.3913 500.3926 L314.6956 500.3926 L314.6956 939 ZM460.2609 939 L460.2609 445.0956 L395.5652 445.0956 L395.5652 939 ZM541.1304 939 L541.1304 384.4818 L476.4348 384.4818 L476.4348 939 ZM622 939 L622 344.7722 L557.3043 344.7722 L557.3043 939 ZM702.8696 939 L702.8696 381.4203 L638.1739 381.4203 L638.1739 939 ZM783.7391 939 L783.7391 445.22 L719.0435 445.22 L719.0435 939 ZM864.6087 939 L864.6087 343.3343 L799.913 343.3343 L799.913 939 ZM945.4782 939 L945.4782 463.388 L880.7826 463.388 L880.7826 939 ZM1026.3478 939 L1026.3478 297.8607 L961.6522 297.8607 L961.6522 939 ZM1107.2174 939 L1107.2174 372.959 L1042.5217 372.959 L1042.5217 939 ZM1188.0869 939 L1188.0869 253.2435 L1123.3914 253.2435 L1123.3914 939 ZM1268.9565 939 L1268.9565 206.8678 L1204.2609 206.8678 L1204.2609 939 ZM1349.826 939 L1349.826 300.4984 L1285.1305 300.4984 L1285.1305 939 ZM1430.6957 939 L1430.6957 267.7689 L1366 267.7689 L1366 939 ZM1511.5652 939 L1511.5652 429.7877 L1446.8696 429.7877 L1446.8696 939 ZM1592.4347 939 L1592.4347 328.4869 L1527.7391 328.4869 L1527.7391 939 ZM1673.3043 939 L1673.3043 151.5764 L1608.6088 151.5764 L1608.6088 939 Z"
         id="path137" />
    </g>
    <g
       style="text-rendering:geometricPrecision; stroke-width:0.8333; color-interpolation:linearRGB; color-rendering:optimizeQuality; stroke-linecap:butt; image-rendering:optimizeQuality;"
       id="g175">
      <path
         d="M314.6956 939 L314.6956 500.3926 L379.3913 500.3926 L379.3913 939 Z"
         style="fill:none; fill-rule:evenodd;"
         id="path141" />
      <path
         d="M395.5652 939 L395.5652 445.0956 L460.2609 445.0956 L460.2609 939 Z"
         style="fill:none; fill-rule:evenodd;"
         id="path143" />
      <path
         d="M476.4348 939 L476.4348 384.4818 L541.1304 384.4818 L541.1304 939 Z"
         style="fill:none; fill-rule:evenodd;"
         id="path145" />
      <path
         d="M557.3043 939 L557.3043 344.7722 L622 344.7722 L622 939 Z"
         style="fill:none; fill-rule:evenodd;"
         id="path147" />
      <path
         d="M638.1739 939 L638.1739 381.4203 L702.8696 381.4203 L702.8696 939 Z"
         style="fill:none; fill-rule:evenodd;"
         id="path149" />
      <path
         d="M719.0435 939 L719.0435 445.22 L783.7391 445.22 L783.7391 939 Z"
         style="fill:none; fill-rule:evenodd;"
         id="path151" />
      <path
         d="M799.913 939 L799.913 343.3343 L864.6087 343.3343 L864.6087 939 Z"
         style="fill:none; fill-rule:evenodd;"
         id="path153" />
      <path
         d="M880.7826 939 L880.7826 463.388 L945.4782 463.388 L945.4782 939 Z"
         style="fill:none; fill-rule:evenodd;"
         id="path155" />
      <path
         d="M961.6522 939 L961.6522 297.8607 L1026.3478 297.8607 L1026.3478 939 Z"
         style="fill:none; fill-rule:evenodd;"
         id="path157" />
      <path
         d="M1042.5217 939 L1042.5217 372.959 L1107.2174 372.959 L1107.2174 939 Z"
         style="fill:none; fill-rule:evenodd;"
         id="path159" />
      <path
         d="M1123.3914 939 L1123.3914 253.2435 L1188.0869 253.2435 L1188.0869 939 Z"
         style="fill:none; fill-rule:evenodd;"
         id="path161" />
      <path
         d="M1204.2609 939 L1204.2609 206.8678 L1268.9565 206.8678 L1268.9565 939 Z"
         style="fill:none; fill-rule:evenodd;"
         id="path163" />
      <path
         d="M1285.1305 939 L1285.1305 300.4984 L1349.826 300.4984 L1349.826 939 Z"
         style="fill:none; fill-rule:evenodd;"
         id="path165" />
      <path
         d="M1366 939 L1366 267.7689 L1430.6957 267.7689 L1430.6957 939 Z"
         style="fill:none; fill-rule:evenodd;"
         id="path167" />
      <path
         d="M1446.8696 939 L1446.8696 429.7877 L1511.5652 429.7877 L1511.5652 939 Z"
         style="fill:none; fill-rule:evenodd;"
         id="path169" />
      <path
         d="M1527.7391 939 L1527.7391 328.4869 L1592.4347 328.4869 L1592.4347 939 Z"
         style="fill:none; fill-rule:evenodd;"
         id="path171" />
      <path
         d="M1608.6088 939 L1608.6088 151.5764 L1673.3043 151.5764 L1673.3043 939 Z"
         style="fill:none; fill-rule:evenodd;"
         id="path173" />
    </g>
    <g
       style="fill:rgb(38,38,38); text-rendering:geometricPrecision; image-rendering:optimizeQuality; color-rendering:optimizeQuality; stroke-linejoin:round; stroke:rgb(38,38,38); color-interpolation:linearRGB; stroke-width:0.8333;"
       id="g249">
      <line
         y2="939"
         style="fill:none;"
         x1="250"
         x2="1738.0001"
         y1="939"
         id="line177" />
      <line
         y2="79"
         style="fill:none;"
         x1="250"
         x2="1738.0001"
         y1="79"
         id="line179" />
      <line
         y2="924.12"
         style="fill:none;"
         x1="347.0435"
         x2="347.0435"
         y1="939"
         id="line181" />
      <line
         y2="924.12"
         style="fill:none;"
         x1="427.9131"
         x2="427.9131"
         y1="939"
         id="line183" />
      <line
         y2="924.12"
         style="fill:none;"
         x1="508.7826"
         x2="508.7826"
         y1="939"
         id="line185" />
      <line
         y2="924.12"
         style="fill:none;"
         x1="589.6522"
         x2="589.6522"
         y1="939"
         id="line187" />
      <line
         y2="924.12"
         style="fill:none;"
         x1="670.5217"
         x2="670.5217"
         y1="939"
         id="line189" />
      <line
         y2="924.12"
         style="fill:none;"
         x1="751.3913"
         x2="751.3913"
         y1="939"
         id="line191" />
      <line
         y2="924.12"
         style="fill:none;"
         x1="832.2609"
         x2="832.2609"
         y1="939"
         id="line193" />
      <line
         y2="924.12"
         style="fill:none;"
         x1="913.1304"
         x2="913.1304"
         y1="939"
         id="line195" />
      <line
         y2="924.12"
         style="fill:none;"
         x1="994"
         x2="994"
         y1="939"
         id="line197" />
      <line
         y2="924.12"
         style="fill:none;"
         x1="1074.8695"
         x2="1074.8695"
         y1="939"
         id="line199" />
      <line
         y2="924.12"
         style="fill:none;"
         x1="1155.7391"
         x2="1155.7391"
         y1="939"
         id="line201" />
      <line
         y2="924.12"
         style="fill:none;"
         x1="1236.6086"
         x2="1236.6086"
         y1="939"
         id="line203" />
      <line
         y2="924.12"
         style="fill:none;"
         x1="1317.4783"
         x2="1317.4783"
         y1="939"
         id="line205" />
      <line
         y2="924.12"
         style="fill:none;"
         x1="1398.3478"
         x2="1398.3478"
         y1="939"
         id="line207" />
      <line
         y2="924.12"
         style="fill:none;"
         x1="1479.2174"
         x2="1479.2174"
         y1="939"
         id="line209" />
      <line
         y2="924.12"
         style="fill:none;"
         x1="1560.0869"
         x2="1560.0869"
         y1="939"
         id="line211" />
      <line
         y2="924.12"
         style="fill:none;"
         x1="1640.9565"
         x2="1640.9565"
         y1="939"
         id="line213" />
      <line
         y2="93.88"
         style="fill:none;"
         x1="347.0435"
         x2="347.0435"
         y1="79"
         id="line215" />
      <line
         y2="93.88"
         style="fill:none;"
         x1="427.9131"
         x2="427.9131"
         y1="79"
         id="line217" />
      <line
         y2="93.88"
         style="fill:none;"
         x1="508.7826"
         x2="508.7826"
         y1="79"
         id="line219" />
      <line
         y2="93.88"
         style="fill:none;"
         x1="589.6522"
         x2="589.6522"
         y1="79"
         id="line221" />
      <line
         y2="93.88"
         style="fill:none;"
         x1="670.5217"
         x2="670.5217"
         y1="79"
         id="line223" />
      <line
         y2="93.88"
         style="fill:none;"
         x1="751.3913"
         x2="751.3913"
         y1="79"
         id="line225" />
      <line
         y2="93.88"
         style="fill:none;"
         x1="832.2609"
         x2="832.2609"
         y1="79"
         id="line227" />
      <line
         y2="93.88"
         style="fill:none;"
         x1="913.1304"
         x2="913.1304"
         y1="79"
         id="line229" />
      <line
         y2="93.88"
         style="fill:none;"
         x1="994"
         x2="994"
         y1="79"
         id="line231" />
      <line
         y2="93.88"
         style="fill:none;"
         x1="1074.8695"
         x2="1074.8695"
         y1="79"
         id="line233" />
      <line
         y2="93.88"
         style="fill:none;"
         x1="1155.7391"
         x2="1155.7391"
         y1="79"
         id="line235" />
      <line
         y2="93.88"
         style="fill:none;"
         x1="1236.6086"
         x2="1236.6086"
         y1="79"
         id="line237" />
      <line
         y2="93.88"
         style="fill:none;"
         x1="1317.4783"
         x2="1317.4783"
         y1="79"
         id="line239" />
      <line
         y2="93.88"
         style="fill:none;"
         x1="1398.3478"
         x2="1398.3478"
         y1="79"
         id="line241" />
      <line
         y2="93.88"
         style="fill:none;"
         x1="1479.2174"
         x2="1479.2174"
         y1="79"
         id="line243" />
      <line
         y2="93.88"
         style="fill:none;"
         x1="1560.0869"
         x2="1560.0869"
         y1="79"
         id="line245" />
      <line
         y2="93.88"
         style="fill:none;"
         x1="1640.9565"
         x2="1640.9565"
         y1="79"
         id="line247" />
    </g>
    <g
       transform="translate(347.0435,945.6667)"
       style="font-size:16.6667px; fill:rgb(38,38,38); text-rendering:geometricPrecision; image-rendering:optimizeQuality; color-rendering:optimizeQuality; font-family:'SansSerif'; stroke:rgb(38,38,38); color-interpolation:linearRGB;"
       id="g253">
      <text
         x="-20"
         xml:space="preserve"
         y="17"
         style="stroke:none;"
         id="text251">Ch01</text>
    </g>
    <g
       transform="translate(427.9131,945.6667)"
       style="font-size:16.6667px; fill:rgb(38,38,38); text-rendering:geometricPrecision; image-rendering:optimizeQuality; color-rendering:optimizeQuality; font-family:'SansSerif'; stroke:rgb(38,38,38); color-interpolation:linearRGB;"
       id="g257">
      <text
         x="-20"
         xml:space="preserve"
         y="17"
         style="stroke:none;"
         id="text255">Ch02</text>
    </g>
    <g
       transform="translate(508.7826,945.6667)"
       style="font-size:16.6667px; fill:rgb(38,38,38); text-rendering:geometricPrecision; image-rendering:optimizeQuality; color-rendering:optimizeQuality; font-family:'SansSerif'; stroke:rgb(38,38,38); color-interpolation:linearRGB;"
       id="g261">
      <text
         x="-20"
         xml:space="preserve"
         y="17"
         style="stroke:none;"
         id="text259">Ch03</text>
    </g>
    <g
       transform="translate(589.6522,945.6667)"
       style="font-size:16.6667px; fill:rgb(38,38,38); text-rendering:geometricPrecision; image-rendering:optimizeQuality; color-rendering:optimizeQuality; font-family:'SansSerif'; stroke:rgb(38,38,38); color-interpolation:linearRGB;"
       id="g265">
      <text
         x="-20"
         xml:space="preserve"
         y="17"
         style="stroke:none;"
         id="text263">Ch04</text>
    </g>
    <g
       transform="translate(670.5217,945.6667)"
       style="font-size:16.6667px; fill:rgb(38,38,38); text-rendering:geometricPrecision; image-rendering:optimizeQuality; color-rendering:optimizeQuality; font-family:'SansSerif'; stroke:rgb(38,38,38); color-interpolation:linearRGB;"
       id="g269">
      <text
         x="-20"
         xml:space="preserve"
         y="17"
         style="stroke:none;"
         id="text267">Ch05</text>
    </g>
    <g
       transform="translate(751.3913,945.6667)"
       style="font-size:16.6667px; fill:rgb(38,38,38); text-rendering:geometricPrecision; image-rendering:optimizeQuality; color-rendering:optimizeQuality; font-family:'SansSerif'; stroke:rgb(38,38,38); color-interpolation:linearRGB;"
       id="g273">
      <text
         x="-20"
         xml:space="preserve"
         y="17"
         style="stroke:none;"
         id="text271">Ch06</text>
    </g>
    <g
       transform="translate(832.2609,945.6667)"
       style="font-size:16.6667px; fill:rgb(38,38,38); text-rendering:geometricPrecision; image-rendering:optimizeQuality; color-rendering:optimizeQuality; font-family:'SansSerif'; stroke:rgb(38,38,38); color-interpolation:linearRGB;"
       id="g277">
      <text
         x="-20"
         xml:space="preserve"
         y="17"
         style="stroke:none;"
         id="text275">Ch07</text>
    </g>
    <g
       transform="translate(913.1304,945.6667)"
       style="font-size:16.6667px; fill:rgb(38,38,38); text-rendering:geometricPrecision; image-rendering:optimizeQuality; color-rendering:optimizeQuality; font-family:'SansSerif'; stroke:rgb(38,38,38); color-interpolation:linearRGB;"
       id="g281">
      <text
         x="-20"
         xml:space="preserve"
         y="17"
         style="stroke:none;"
         id="text279">Ch08</text>
    </g>
    <g
       transform="translate(994,945.6667)"
       style="font-size:16.6667px; fill:rgb(38,38,38); text-rendering:geometricPrecision; image-rendering:optimizeQuality; color-rendering:optimizeQuality; font-family:'SansSerif'; stroke:rgb(38,38,38); color-interpolation:linearRGB;"
       id="g285">
      <text
         x="-20"
         xml:space="preserve"
         y="17"
         style="stroke:none;"
         id="text283">Ch09</text>
    </g>
    <g
       transform="translate(1074.8695,945.6667)"
       style="font-size:16.6667px; fill:rgb(38,38,38); text-rendering:geometricPrecision; image-rendering:optimizeQuality; color-rendering:optimizeQuality; font-family:'SansSerif'; stroke:rgb(38,38,38); color-interpolation:linearRGB;"
       id="g289">
      <text
         x="-20"
         xml:space="preserve"
         y="17"
         style="stroke:none;"
         id="text287">Ch10</text>
    </g>
    <g
       transform="translate(1155.7391,945.6667)"
       style="font-size:16.6667px; fill:rgb(38,38,38); text-rendering:geometricPrecision; image-rendering:optimizeQuality; color-rendering:optimizeQuality; font-family:'SansSerif'; stroke:rgb(38,38,38); color-interpolation:linearRGB;"
       id="g293">
      <text
         x="-20"
         xml:space="preserve"
         y="17"
         style="stroke:none;"
         id="text291">Ch11</text>
    </g>
    <g
       transform="translate(1236.6086,945.6667)"
       style="font-size:16.6667px; fill:rgb(38,38,38); text-rendering:geometricPrecision; image-rendering:optimizeQuality; color-rendering:optimizeQuality; font-family:'SansSerif'; stroke:rgb(38,38,38); color-interpolation:linearRGB;"
       id="g297">
      <text
         x="-20"
         xml:space="preserve"
         y="17"
         style="stroke:none;"
         id="text295">Ch12</text>
    </g>
    <g
       transform="translate(1317.4783,945.6667)"
       style="font-size:16.6667px; fill:rgb(38,38,38); text-rendering:geometricPrecision; image-rendering:optimizeQuality; color-rendering:optimizeQuality; font-family:'SansSerif'; stroke:rgb(38,38,38); color-interpolation:linearRGB;"
       id="g301">
      <text
         x="-20"
         xml:space="preserve"
         y="17"
         style="stroke:none;"
         id="text299">Ch13</text>
    </g>
    <g
       transform="translate(1398.3478,945.6667)"
       style="font-size:16.6667px; fill:rgb(38,38,38); text-rendering:geometricPrecision; image-rendering:optimizeQuality; color-rendering:optimizeQuality; font-family:'SansSerif'; stroke:rgb(38,38,38); color-interpolation:linearRGB;"
       id="g305">
      <text
         x="-20"
         xml:space="preserve"
         y="17"
         style="stroke:none;"
         id="text303">Ch14</text>
    </g>
    <g
       transform="translate(1479.2174,945.6667)"
       style="font-size:16.6667px; fill:rgb(38,38,38); text-rendering:geometricPrecision; image-rendering:optimizeQuality; color-rendering:optimizeQuality; font-family:'SansSerif'; stroke:rgb(38,38,38); color-interpolation:linearRGB;"
       id="g309">
      <text
         x="-20"
         xml:space="preserve"
         y="17"
         style="stroke:none;"
         id="text307">Ch15</text>
    </g>
    <g
       transform="translate(1560.0869,945.6667)"
       style="font-size:16.6667px; fill:rgb(38,38,38); text-rendering:geometricPrecision; image-rendering:optimizeQuality; color-rendering:optimizeQuality; font-family:'SansSerif'; stroke:rgb(38,38,38); color-interpolation:linearRGB;"
       id="g313">
      <text
         x="-20"
         xml:space="preserve"
         y="17"
         style="stroke:none;"
         id="text311">Ch16</text>
    </g>
    <g
       transform="translate(1640.9565,945.6667)"
       style="font-size:16.6667px; fill:rgb(38,38,38); text-rendering:geometricPrecision; image-rendering:optimizeQuality; color-rendering:optimizeQuality; font-family:'SansSerif'; stroke:rgb(38,38,38); color-interpolation:linearRGB;"
       id="g317">
      <text
         x="-20"
         xml:space="preserve"
         y="17"
         style="stroke:none;"
         id="text315">Ch17</text>
    </g>
    <g
       transform="translate(994.0008,968.3333)"
       style="font-size:18.3333px; fill:rgb(38,38,38); text-rendering:geometricPrecision; image-rendering:optimizeQuality; color-rendering:optimizeQuality; font-family:'SansSerif'; stroke:rgb(38,38,38); color-interpolation:linearRGB;"
       id="g321">
      <text
         x="-29"
         xml:space="preserve"
         y="19"
         style="stroke:none;"
         id="text319">Canais</text>
    </g>
    <g
       style="fill:rgb(38,38,38); text-rendering:geometricPrecision; image-rendering:optimizeQuality; color-rendering:optimizeQuality; stroke-linejoin:round; stroke:rgb(38,38,38); color-interpolation:linearRGB; stroke-width:0.8333;"
       id="g347">
      <line
         y2="79"
         style="fill:none;"
         x1="250"
         x2="250"
         y1="939"
         id="line323" />
      <line
         y2="79"
         style="fill:none;"
         x1="1738.0001"
         x2="1738.0001"
         y1="939"
         id="line325" />
      <line
         y2="939"
         style="fill:none;"
         x1="250"
         x2="264.88"
         y1="939"
         id="line327" />
      <line
         y2="724"
         style="fill:none;"
         x1="250"
         x2="264.88"
         y1="724"
         id="line329" />
      <line
         y2="509"
         style="fill:none;"
         x1="250"
         x2="264.88"
         y1="509"
         id="line331" />
      <line
         y2="294"
         style="fill:none;"
         x1="250"
         x2="264.88"
         y1="294"
         id="line333" />
      <line
         y2="79"
         style="fill:none;"
         x1="250"
         x2="264.88"
         y1="79"
         id="line335" />
      <line
         y2="939"
         style="fill:none;"
         x1="1738.0001"
         x2="1723.1201"
         y1="939"
         id="line337" />
      <line
         y2="724"
         style="fill:none;"
         x1="1738.0001"
         x2="1723.1201"
         y1="724"
         id="line339" />
      <line
         y2="509"
         style="fill:none;"
         x1="1738.0001"
         x2="1723.1201"
         y1="509"
         id="line341" />
      <line
         y2="294"
         style="fill:none;"
         x1="1738.0001"
         x2="1723.1201"
         y1="294"
         id="line343" />
      <line
         y2="79"
         style="fill:none;"
         x1="1738.0001"
         x2="1723.1201"
         y1="79"
         id="line345" />
    </g>
    <g
       transform="translate(243.3333,939)"
       style="font-size:16.6667px; fill:rgb(38,38,38); text-rendering:geometricPrecision; image-rendering:optimizeQuality; color-rendering:optimizeQuality; font-family:'SansSerif'; stroke:rgb(38,38,38); color-interpolation:linearRGB;"
       id="g351">
      <text
         x="-10"
         xml:space="preserve"
         y="6.5"
         style="stroke:none;"
         id="text349">0</text>
    </g>
    <g
       transform="translate(243.3333,724)"
       style="font-size:16.6667px; fill:rgb(38,38,38); text-rendering:geometricPrecision; image-rendering:optimizeQuality; color-rendering:optimizeQuality; font-family:'SansSerif'; stroke:rgb(38,38,38); color-interpolation:linearRGB;"
       id="g355">
      <text
         x="-28"
         xml:space="preserve"
         y="6.5"
         style="stroke:none;"
         id="text353">500</text>
    </g>
    <g
       transform="translate(243.3333,509)"
       style="font-size:16.6667px; fill:rgb(38,38,38); text-rendering:geometricPrecision; image-rendering:optimizeQuality; color-rendering:optimizeQuality; font-family:'SansSerif'; stroke:rgb(38,38,38); color-interpolation:linearRGB;"
       id="g359">
      <text
         x="-38"
         xml:space="preserve"
         y="6.5"
         style="stroke:none;"
         id="text357">1000</text>
    </g>
    <g
       transform="translate(243.3333,294)"
       style="font-size:16.6667px; fill:rgb(38,38,38); text-rendering:geometricPrecision; image-rendering:optimizeQuality; color-rendering:optimizeQuality; font-family:'SansSerif'; stroke:rgb(38,38,38); color-interpolation:linearRGB;"
       id="g363">
      <text
         x="-38"
         xml:space="preserve"
         y="6.5"
         style="stroke:none;"
         id="text361">1500</text>
    </g>
    <g
       transform="translate(243.3333,79)"
       style="font-size:16.6667px; fill:rgb(38,38,38); text-rendering:geometricPrecision; image-rendering:optimizeQuality; color-rendering:optimizeQuality; font-family:'SansSerif'; stroke:rgb(38,38,38); color-interpolation:linearRGB;"
       id="g367">
      <text
         x="-38"
         xml:space="preserve"
         y="6.5"
         style="stroke:none;"
         id="text365">2000</text>
    </g>
    <g
       transform="translate(200.3333,508.9996) rotate(-90)"
       style="font-size:18.3333px; fill:rgb(38,38,38); text-rendering:geometricPrecision; image-rendering:optimizeQuality; color-rendering:optimizeQuality; font-family:'SansSerif'; stroke:rgb(38,38,38); color-interpolation:linearRGB;"
       id="g371">
      <text
         x="-19.5"
         xml:space="preserve"
         y="-5"
         style="stroke:none;"
         id="text369">ADC</text>
    </g>
  </g>
</svg>
