str;media2
Ch01;1039.75357008799
Ch02;1197.09756221327
Ch03;1348.68292396506
Ch04;1461.04972182339
Ch05;1370.88465849139
Ch06;1193.22899907767
Ch07;1419.0376120032
Ch08;1208.85444242443
Ch09;1540.58688807285
Ch10;1374.26372294368
Ch11;1603.15523775115
Ch12;1779.10891769472
Ch13;1549.40168923779
Ch14;1615.40923301692
Ch15;1294.68464913812
Ch16;1462.74277174594
Ch17;1912.50063735734
