str;media2
Ch01;1100.75182990589
Ch02;1149.80237016382
Ch03;1078.70454281399
Ch04;892.537120948066
Ch05;699.800278842802
Ch06;673.264319739747
Ch07;922.283606366911
Ch08;822.237016382015
Ch09;1302.21900778436
Ch10;1165.49180899268
Ch11;1286.04612524689
Ch12;1196.02811664924
Ch13;1000.41628906704
Ch14;1002.95387475311
Ch15;966.948995004066
Ch16;1150.54734518415
Ch17;1378.10898106193
