str;media2
Ch01;1062.65310694494
Ch02;1213.55347246787
Ch03;1222.17604056125
Ch04;1041.74142200212
Ch05;773.013441811107
Ch06;652.447706638368
Ch07;811.475651456196
Ch08;727.421058837401
Ch09;1286.70970404433
Ch10;1211.43886334159
Ch11;1377.05989859686
Ch12;1299.51373658767
Ch13;1057.14573753095
Ch14;1008.92182525646
Ch15;934.706756278741
Ch16;1108.81122509138
Ch17;1421.63282631765
