str;media2
Ch01;687.685852423161
Ch02;805.378496604121
Ch03;793.34304132612
Ch04;598.916887302866
Ch05;384.993668700357
Ch06;336.177851962703
Ch07;430.784735812133
Ch08;401.296880395994
Ch09;757.143317601013
Ch10;747.930240589386
Ch11;834.278692298837
Ch12;736.300333832163
Ch13;564.712328767123
Ch14;517.536894209739
Ch15;423.520778174283
Ch16;618.667434096926
Ch17;811.796592609647
