str;media2
Ch01;1194.2964264792
Ch02;1226.14399531342
Ch03;1199.24358523726
Ch04;999.045811364968
Ch05;758.685413005272
Ch06;783.641710603398
Ch07;1109.72314001172
Ch08;956.275102519039
Ch09;1436.07803163445
Ch10;1257.29455184534
Ch11;1383.72360867018
Ch12;1299.28904510838
Ch13;1100.56930287053
Ch14;1137.17363796134
Ch15;1115.6755711775
Ch16;1295.87369654364
Ch17;1513.35219683656
