str;media2
Ch01;1197.63934237756
Ch02;1089.84904575765
Ch03;895.963324902276
Ch04;671.575649574615
Ch05;493.146125546103
Ch06;635.446999310186
Ch07;1003.0651873994
Ch08;962.129340078179
Ch09;1335.98585881812
Ch10;1109.67141871695
Ch11;1139.1900436882
Ch12;1025.01080708209
Ch13;883.951942975397
Ch14;955.536560128765
Ch15;888.51494596459
Ch16;1214.9472292481
Ch17;1315.45297769602
