str;media2
Ch01;242.291922531885
Ch02;243.114430798299
Ch03;249.006258856873
Ch04;269.682923948984
Ch05;269.670051960321
Ch06;245.669579593765
Ch07;303.970004723666
Ch08;224.568847425602
Ch09;322.565777042985
Ch10;275.662376003779
Ch11;330.417335852622
Ch12;342.698275862069
Ch13;304.50129900803
Ch14;328.155054322154
Ch15;288.796764289088
Ch16;311.271610769957
Ch17;389.304794520548
