str;media2
Ch01;1380.41546451241
Ch02;1287.37703404501
Ch03;1119.49267166763
Ch04;853.000115406809
Ch05;618.940680900173
Ch06;764.609924985574
Ch07;1170.99549913445
Ch08;1101.06047316792
Ch09;1567.51990767455
Ch10;1316.68690132718
Ch11;1369.64293133295
Ch12;1243.51517599538
Ch13;1068.29371032891
Ch14;1145.39284477784
Ch15;1089.26785920369
Ch16;1422.71459896134
Ch17;1559.54702827467
