str;media2
Ch01;584.013541539588
Ch02;607.525192143467
Ch03;620.938148102965
Ch04;637.149078931316
Ch05;613.26948883738
Ch06;540.05184823716
Ch07;665.373917286812
Ch08;510.248505550811
Ch09;770.795168964255
Ch10;672.487373429303
Ch11;794.851897035501
Ch12;807.667073319507
Ch13;707.600951567647
Ch14;744.924606563377
Ch15;663.396486519458
Ch16;722.148590947908
Ch17;895.081737220935
