str;media2
Ch01;308.480622798045
Ch02;240.391635413115
Ch03;195.231730878509
Ch04;210.679736333674
Ch05;229.93953858393
Ch06;276.064325491533
Ch07;404.66098420275
Ch08;317.420161381975
Ch09;382.344357313331
Ch10;285.429026025685
Ch11;305.144902829867
Ch12;308.530855779066
Ch13;298.621434253892
Ch14;357.400272758268
Ch15;321.598022502557
Ch16;381.969201045573
Ch17;404.335038072508
