str;media2
Ch01;1419.39880226239
Ch02;1466.13762892315
Ch03;1452.5978706887
Ch04;1348.95419762671
Ch05;1180.86725074859
Ch06;1198.27215260064
Ch07;1608.88832205833
Ch08;1441.87878451813
Ch09;1843.02506376844
Ch10;1587.75889985583
Ch11;1818.53598757902
Ch12;1822.10247310635
Ch13;1577.49384495952
Ch14;1671.97316180548
Ch15;1371.36575357658
Ch16;1730.23843850505
Ch17;2095.87479205944
