str;media2
Ch01;653.089652728561
Ch02;631.076895818568
Ch03;648.792700212615
Ch04;720.712260807938
Ch05;754.253543586109
Ch06;710.547306874557
Ch07;883.994684620836
Ch08;643.457654145996
Ch09;901.079907866761
Ch10;758.243267186393
Ch11;885.604004252303
Ch12;925.027108433735
Ch13;847.1006378455
Ch14;918.082388377038
Ch15;958.115343727853
Ch16;874.594968107725
Ch17;1044.35152374203
