str;media2
Ch01;1243.07473841555
Ch02;1365.27860181672
Ch03;1438.93423019432
Ch04;1405.33896746004
Ch05;1215.79590663447
Ch06;1125.69092790617
Ch07;1416.47901575256
Ch08;1150.6980568012
Ch09;1669.62297343912
Ch10;1482.48005059216
Ch11;1729.49212372082
Ch12;1764.58755892837
Ch13;1519.95906634472
Ch14;1574.8676555134
Ch15;1235.63320685294
Ch16;1548.78981257905
Ch17;1950.00816373462
