str;media2
Ch01;1180.09519419154
Ch02;1245.63858476432
Ch03;1307.43540394145
Ch04;1324.1973032154
Ch05;1206.42998732281
Ch06;1120.22023740924
Ch07;1389.36464215743
Ch08;1110.71971879682
Ch09;1591.79428373862
Ch10;1385.37512965311
Ch11;1620.36153048289
Ch12;1679.78748415351
Ch13;1466.36717759594
Ch14;1545.41108678115
Ch15;1206.85133110522
Ch16;1498.1206638239
Ch17;1869.27820675349
