str;media2
Ch01;1151.2576860402
Ch02;1315.21933731668
Ch03;1399.22639869636
Ch04;1360.36143400326
Ch05;1138.25236284628
Ch06;993.487561108093
Ch07;1205.55524171646
Ch08;993.487235198262
Ch09;1533.49364475828
Ch10;1403.71124388919
Ch11;1650.71700162955
Ch12;1678.31417707768
Ch13;1415.49549158066
Ch14;1429.77381857686
Ch15;1097.0576860402
Ch16;1397.64964693102
Ch17;1813.00119500272
