str;media2
Ch01;878.230396193613
Ch02;1103.24787263245
Ch03;1372.94445969439
Ch04;1586.79549821576
Ch05;1525.05160581938
Ch06;1258.8070271754
Ch07;1424.16698691555
Ch08;1007.44889742886
Ch09;1466.0953426663
Ch10;1334.6254003111
Ch11;1698.78149876475
Ch12;1879.44221795224
Ch13;1629.46957635648
Ch14;1695.04922682771
Ch15;1227.62558331046
Ch16;1410.72952694666
Ch17;1922.90667032665
