str;media2
Ch01;1276.13429918363
Ch02;1427.14257790043
Ch03;1535.24824652179
Ch04;1558.06370012648
Ch05;1383.29423939289
Ch06;1225.81579855122
Ch07;1486.68276417155
Ch08;1213.61159020352
Ch09;1771.95136253881
Ch10;1588.49821777624
Ch11;1875.14775209842
Ch12;1953.20202368633
Ch13;1676.3081522364
Ch14;1724.17661262504
Ch15;1321.7699206623
Ch16;1644.1184316431
Ch17;2111.54903989882
