str;media2
Ch01;874.445668218463
Ch02;1129.21812194845
Ch03;1415.29397070512
Ch04;1585.46894515726
Ch05;1452.08629499262
Ch06;1145.82979448166
Ch07;1284.92926081526
Ch08;1011.31202452595
Ch09;1380.31157034177
Ch10;1298.03837856251
Ch11;1672.66787782446
Ch12;1812.13852617236
Ch13;1540.42716021347
Ch14;1565.6463040763
Ch15;1105.36209833087
Ch16;1301.82922675145
Ch17;1823.73373452935
