str;media2
Ch01;1014.78584686775
Ch02;1166.0505800464
Ch03;1327.49802784223
Ch04;1389.97842227378
Ch05;1279.87877030162
Ch06;1126.54153132251
Ch07;1367.36763341067
Ch08;1137.78317865429
Ch09;1469.22819025522
Ch10;1302.76751740139
Ch11;1582.61856148492
Ch12;1685.48039443155
Ch13;1462.85452436195
Ch14;1531.61044083527
Ch15;1155.94524361949
Ch16;1393.92517401392
Ch17;1810.11774941995
